…
``` r
# What is the number and percentage of missing values grouped by
# each variable?
miss_var_summary(STREAMLINING_PROCESSES_AT_KINYANJUI_FARM)
```

```         
## # A tibble: 31 × 3
##    variable                n_miss pct_miss
##    <chr>                    <int>    <dbl>
##  1 Age                          0        0
##  2 Attrition                    0        0
##  3 BusinessTravel               0        0
##  4 DailyRate                    0        0
##  5 Department                   0        0
##  6 DistanceFromHome             0        0
##  7 Education                    0        0
##  8 EducationField               0        0
##  9 EnvironmentSatisfaction      0        0
## 10 Gender                       0        0
## # ℹ 21 more rows
```

``` r
# What is the number and percentage of missing values grouped by
# each observation?
miss_case_summary(STREAMLINING_PROCESSES_AT_KINYANJUI_FARM)
```

```         
## # A tibble: 1,470 × 3
##     case n_miss pct_miss
##    <int>  <int>    <dbl>
##  1     1      0        0
##  2     2      0        0
##  3     3      0        0
##  4     4      0        0
##  5     5      0        0
##  6     6      0        0
##  7     7      0        0
##  8     8      0        0
##  9     9      0        0
## 10    10      0        0
## # ℹ 1,460 more rows
```
…
